{
    "id": "7",
    "owner": "somebody@bahoo.com",
    "actor": "somebody@bahoo.com",
    "name": " Figures",
    "groups": null,
    "cover": {
        "id": "bd",
        "owner": "somebody@bahoo.com",
        "actor": "somebody@bahoo.com",
        "appId": "somebody.openphoto.me",
        "host": "awesomeness.openphoto.me",
        "title": "",
        "description": "",
        "key": null,
        "hash": "db6d2af38121a0a3d24799eeab29bdd5a8b7cce5",
        "size": "1391",
        "width": "2592",
        "height": "1728",
        "rotation": "0",
        "latitude": null,
        "longitude": null,
        "views": "0",
        "status": "1",
        "permission": "0",
        "license": "",
        "dateTaken": "1370295209",
        "dateTakenDay": "3",
        "dateTakenMonth": "6",
        "dateTakenYear": "2013",
        "dateUploaded": "1370237905",
        "dateUploadedDay": "2",
        "dateUploadedMonth": "6",
        "dateUploadedYear": "2013",
        "dateSortByDay": "20130603092630",
        "filenameOriginal": "IMG_1234.JPG",
        "pathOriginal": "http://awesomeness.openphoto.me/original/201306/IMG_1234-51ac2bd054020.JPG",
        "pathBase": "http://awesomeness.openphoto.me/base/201306/IMG_1234-1171e1.JPG",
        "albums": [
                   "7"
                   ],
        "groups": "",
        "tags": [
                 "2013",
                 "figure",
                 "iron man",
                 "June"
                 ],
        "timestamp": "2013-06-03 05:42:09",
        "path100x100": "http://awesomeness.openphoto.me/custom/201306/IMG_1234-1171e1_100x100.jpg",
        "path100x100xCR": "http://awesomeness.openphoto.me/custom/201306/IMG_1234-1171e1_100x100xCR.jpg",
        "path200x200": "http://awesomeness.openphoto.me/custom/201306/IMG_1234-1171e1_200x200.jpg",
        "path200x200xCR": "http://awesomeness.openphoto.me/custom/201306/IMG_1234-1171e1_200x200xCR.jpg",
        "exifCameraMake": "Canon",
        "exifCameraModel": "Canon EOS M",
        "exifFNumber": "5.6",
        "exifExposureTime": "1/80",
        "exifISOSpeed": "320",
        "exifFocalLength": "55",
        "photo100x100": [
                         "http://awesomeness.openphoto.me/custom/201306/IMG_1234-1171e1_100x100.jpg",
                         100,
                         66
                         ],
        "photo100x100xCR": [
                            "http://awesomeness.openphoto.me/custom/201306/IMG_1234-1171e1_100x100xCR.jpg",
                            100,
                            100
                            ],
        "photo200x200": [
                         "http://awesomeness.openphoto.me/custom/201306/IMG_1234-1171e1_200x200.jpg",
                         200,
                         133
                         ],
        "photo200x200": [
                            "http://awesomeness.openphoto.me/custom/201306/IMG_1234-1171e1_200x200xCR.jpg",
                            200,
                            200
                            ],
        "pathDownload": "https://somebody.trovebox.com/photo/bd/download",
        "url": "https://somebody.trovebox.com/p/bd"
    },
    "totalRows": 57,
    "count": "235",
    "currentPage": 1,
    "currentRows": 20,
    "pageSize": 20,
    "totalPages": 3
}